{
  "name": "dhollinger-devopsdays",
  "version": "0.1.0",
  "author": "David Hollinger",
  "summary": "Module for devopsdays CI workshop",
  "license": "Apache-2.0",
  "source": "",
  "dependencies": [
    {
      "name": "puppetlabs-stdlib",
      "version_requirement": ">= 4.22.0 < 5.0.0"
    },
    {
      "name": "puppetlabs-firewall",
      "version_requirement": ">= 1.12.0 < 2.0.0"
    },
    {
      "name": "puppetlabs-mysql",
      "version_requirement": ">= 6.0.0 < 7.0.0"
    },
    {
      "name": "puppet-nginx",
      "version_requirement": ">= 0.12.0 < 1.0.0"
    },
    {
      "name": "puppet-php",
      "version_requirement": ">= 5.0.0 < 7.0.0"
    },
    {
      "name": "puppet-archive",
      "version_requirement": ">= 1.0.0 < 4.0.0"
    }
  ],
  "operatingsystem_support": [
    {
      "operatingsystem": "CentOS",
      "operatingsystemrelease": [
        "7"
      ]
    },
    {
      "operatingsystem": "RedHat",
      "operatingsystemrelease": [
        "7"
      ]
    },
    {
      "operatingsystem": "Ubuntu",
      "operatingsystemrelease": [
        "16.04",
        "18.04"
      ]
    }
  ],
  "requirements": [
    {
      "name": "puppet",
      "version_requirement": ">= 4.10.0 < 7.0.0"
    }
  ],
  "pdk-version": "1.7.1",
  "template-url": "file:///opt/puppetlabs/pdk/share/cache/pdk-templates.git",
  "template-ref": "1.7.1-0-g810b982"
}
